{
  "realm" : "constellation",
  "users" : [ {
    "id" : "68c46c3f-7dd5-419f-aba9-1148700949ef",
    "createdTimestamp" : 1551299418609,
    "username" : "sebastienm4j",
    "enabled" : true,
    "totp" : false,
    "emailVerified" : true,
    "firstName" : "Sébastien",
    "lastName" : "M",
    "email" : "sebastienm4j@gmail.com",
    "credentials" : [ {
      "type" : "password",
      "hashedSaltedValue" : "tcNbnFziaVpNVjjzCtwQhGoaqNcB9lN2CgmUmtQ/Rqe+mll1QlAL8UaQV6HzF0uIyvx8BQ9b0fynFYRcKL3jDw==",
      "salt" : "eK4VwFOqHfu3/yHYNU6m4w==",
      "hashIterations" : 27500,
      "counter" : 0,
      "algorithm" : "pbkdf2-sha256",
      "digits" : 0,
      "period" : 0,
      "createdDate" : 1551299449169,
      "config" : { }
    } ],
    "disableableCredentialTypes" : [ "password" ],
    "requiredActions" : [ ],
    "realmRoles" : [ "offline_access", "uma_authorization" ],
    "clientRoles" : {
      "account" : [ "manage-account", "view-profile" ]
    },
    "notBefore" : 0,
    "groups" : [ ]
  }, {
    "id" : "df0244ad-dbcd-4097-8c5d-d0de64179b12",
    "createdTimestamp" : 1551304675088,
    "username" : "service-account-antliae",
    "enabled" : true,
    "totp" : false,
    "emailVerified" : false,
    "email" : "service-account-antliae@placeholder.org",
    "serviceAccountClientId" : "antliae",
    "credentials" : [ ],
    "disableableCredentialTypes" : [ ],
    "requiredActions" : [ ],
    "realmRoles" : [ "offline_access", "uma_authorization" ],
    "clientRoles" : {
      "account" : [ "manage-account", "view-profile" ],
      "antliae" : [ "uma_protection" ]
    },
    "notBefore" : 0,
    "groups" : [ ]
  } ]
}